<svg viewBox="0 0 32 32" xmlns="http://www.w3.org/2000/svg">
    <path d="M9.5907 8H8.18699C8.08372 8 8 8.08372 8 8.18699V23.8123C8 23.9155 8.08372 23.9992 8.18699 23.9992H9.5907C9.69397 23.9992 9.77769 23.9155 9.77769 23.8123V8.18699C9.77769 8.08372 9.69397 8 9.5907 8ZM13.1463 8H11.7426C11.6393 8 11.5556 8.08372 11.5556 8.18699V23.8123C11.5556 23.9155 11.6393 23.9992 11.7426 23.9992H13.1463C13.2496 23.9992 13.3333 23.9155 13.3333 23.8123V8.18699C13.3333 8.08372 13.2496 8 13.1463 8ZM15.2982 8H16.7019C16.8052 8 16.8889 8.08372 16.8889 8.18699V23.8123C16.8889 23.9155 16.8052 23.9992 16.7019 23.9992H15.2982C15.1949 23.9992 15.1112 23.9155 15.1112 23.8123V8.18699C15.1112 8.08372 15.1949 8 15.2982 8ZM20.2567 8H18.8529C18.7497 8 18.666 8.08372 18.666 8.18699V23.8123C18.666 23.9155 18.7497 23.9992 18.8529 23.9992H20.2567C20.3599 23.9992 20.4436 23.9155 20.4436 23.8123V8.18699C20.4436 8.08372 20.3599 8 20.2567 8ZM22.4093 14.2223H23.813C23.9163 14.2223 24 14.306 24 14.4093V17.5907C24 17.694 23.9163 17.7777 23.813 17.7777H22.4093C22.3061 17.7777 22.2223 17.694 22.2223 17.5907V14.4093C22.2223 14.306 22.3061 14.2223 22.4093 14.2223Z"/>
</svg>
