<svg viewBox="0 0 32 32" xmlns="http://www.w3.org/2000/svg">
    <path d="M22.7471 15.2859L20.8423 10.3158C20.8032 10.2183 20.7345 10.1355 20.6458 10.079C20.5572 10.0224 20.4532 9.99509 20.3482 10.0007C20.2433 10.0064 20.1427 10.0447 20.0607 10.1104C19.9786 10.1761 19.9192 10.2658 19.8907 10.3669L18.6044 14.3047H13.3954L12.1091 10.3669C12.08 10.2663 12.0202 10.1772 11.9382 10.1121C11.8562 10.0469 11.7559 10.0089 11.6512 10.0034C11.5466 9.99781 11.4429 10.025 11.3544 10.0811C11.2659 10.1371 11.1971 10.2194 11.1575 10.3164L9.25323 15.2865C9.25308 15.2865 9.25293 15.2865 9.25278 15.2865L9.23626 15.3297L9.23355 15.3366C8.95938 16.0532 8.92564 16.8395 9.13741 17.5769C9.34917 18.3143 9.79497 18.9629 10.4076 19.4249L10.4143 19.4305L10.4312 19.4428L13.3294 21.6148L13.3293 21.6149L14.7673 22.7019L15.1766 23.0115L15.6407 23.3626C15.7432 23.4402 15.8682 23.4821 15.9968 23.4821C16.1254 23.4821 16.2504 23.4402 16.3529 23.3626L17.2264 22.702L18.6645 21.6151L18.6655 21.6143L18.6663 21.6149L21.5856 19.4298L21.5935 19.4242C22.2058 18.9621 22.6512 18.3136 22.8628 17.5763C23.0744 16.8389 23.0405 16.0528 22.7664 15.3365L22.7473 15.2859L22.7471 15.2859Z"/>
</svg>
