<svg viewBox="0 0 32 32" xmlns="http://www.w3.org/2000/svg">
    <path d="M20.0525 9.50571C20.7267 8.83143 21.8199 8.83143 22.4942 9.50571L22.4943 9.50596C23.1686 10.1802 23.1686 11.2735 22.4942 11.9475C21.9565 12.4853 21.1525 12.5927 20.5067 12.2725L16.746 16.0332C17.0662 16.679 16.9588 17.483 16.421 18.0208C16.0971 18.3445 15.658 18.5264 15.2001 18.5264C14.7422 18.5264 14.303 18.3446 13.9791 18.0209C13.6554 17.697 13.4736 17.2579 13.4736 16.8C13.4736 16.3422 13.6554 15.903 13.9791 15.5791C14.5169 15.0413 15.321 14.934 15.9667 15.2542L19.7276 11.4932C19.4071 10.8475 19.5146 10.0435 20.0525 9.50571ZM15.0751 10.6029L14.9501 10.6054C14.6894 10.6159 14.4291 10.6426 14.1711 10.6858L14.1541 10.6887L14.0459 10.7083L13.9835 10.7201L13.92 10.7333L13.815 10.7563L13.7959 10.7605C13.2786 10.8813 12.7788 11.0677 12.3088 11.3152L12.0001 11.4894L12.0005 11.4901L13.9027 14.6484L14.0119 14.5875C14.0488 14.5678 14.0861 14.549 14.1238 14.5312C14.3835 14.4073 14.6626 14.3291 14.9488 14.2999L15.0738 14.2899L15.1988 14.2857L15.1989 10.6003C15.1704 10.6002 15.142 10.601 15.1136 10.6018L15.0739 10.6028L15.0751 10.6029ZM10.6432 12.5969L10.8161 12.4163L13.4219 15.022C13.4029 15.041 13.3854 15.061 13.3679 15.0811L13.3679 15.0811L13.3679 15.0811L13.3678 15.0812L13.3678 15.0812C13.3581 15.0924 13.3483 15.1036 13.3382 15.1147C13.3293 15.1244 13.3202 15.134 13.3111 15.1437L13.311 15.1437C13.2912 15.1647 13.2713 15.1857 13.2542 15.2076C12.9402 15.5901 12.7467 16.0573 12.6984 16.5499L12.6915 16.6749L12.6855 16.7998H9L9.00212 16.6749L9.0055 16.5499C9.04842 15.4568 9.3805 14.3947 9.96787 13.4719L9.98737 13.4419L10.0411 13.3599L10.094 13.2818L10.1167 13.2493C10.2752 13.0219 10.4509 12.805 10.6432 12.5969ZM18.4052 11.4923L18.4205 11.5014L18.4196 11.5017C18.5243 11.5658 18.627 11.6331 18.7276 11.7034L16.0077 14.4209C15.8255 14.3591 15.6376 14.3187 15.448 14.2991V10.6046L15.5022 10.6067L15.6522 10.6158L15.7713 10.6258L15.7993 10.6283L15.8993 10.6392L15.9512 10.6449L16.0031 10.6519C16.426 10.7074 16.8424 10.806 17.2449 10.9466L17.3949 11.0008L17.4124 11.0075C17.639 11.095 17.8608 11.1945 18.077 11.3075L18.0928 11.3157L18.1928 11.3697L18.2502 11.4017L18.3074 11.4342L18.4052 11.4923ZM18.3341 22.0028L16.4961 18.9532L16.3869 19.0141L16.2749 19.0703C15.9378 19.2306 15.5693 19.314 15.196 19.3144C14.953 19.3144 14.7113 19.2791 14.4784 19.2097L14.3603 19.1682L14.2423 19.1263L12.8392 22.534L12.8495 22.5377L12.8602 22.5418H12.8604L12.8631 22.5431L13.1324 22.6462C13.5424 22.7909 13.9663 22.8923 14.3973 22.9489C14.4141 22.951 14.431 22.9532 14.4478 22.9556L14.6005 22.9723L14.6252 22.9744L14.7477 22.9846L14.7893 22.9871L14.8966 22.9934L14.9623 22.9959L15.0476 22.9989L15.1998 23.0008C15.5446 23.0008 15.8887 22.9721 16.2288 22.915L16.246 22.9125L16.354 22.8929L16.4165 22.881L16.4796 22.8678L16.5849 22.8447L16.6038 22.8403C17.1211 22.7196 17.6208 22.5333 18.0908 22.2859L18.0909 22.2857L18.1821 22.2357L18.3675 22.1313L18.3645 22.1225L18.3691 22.1304L18.3751 22.1269L18.3995 22.1123L18.3341 22.0028ZM13.609 14.8557L13.6961 14.7882L13.6896 14.7774L11.7897 11.6247L11.5292 11.8042C11.3454 11.9394 11.1676 12.0862 10.9965 12.2443L13.5989 14.8455L13.609 14.8557ZM9.00562 17.0489H12.6996H12.6997C12.7285 17.3324 12.806 17.6114 12.9305 17.8738L9.76527 19.784L9.7509 19.759L9.68341 19.6308L9.67466 19.6137L9.61929 19.5019L9.60404 19.4704L9.55805 19.372L9.53618 19.322L9.49868 19.2398L9.47044 19.1723L9.44381 19.1073L9.41007 19.0198L9.3922 18.9726L9.3542 18.868L9.34345 18.8375L9.30283 18.7165L9.30033 18.7086L9.25622 18.5661L9.25497 18.5624C9.16998 18.2757 9.10649 17.9839 9.06374 17.6877L9.04499 17.5448C9.04434 17.5405 9.04389 17.5362 9.04362 17.5319L9.02925 17.3988L9.02675 17.3719L9.01675 17.2517L9.014 17.2072L9.00775 17.1031L9.00562 17.0489ZM9.1811 18.7473L9.1801 18.744L9.30033 18.7098L9.1811 18.7473ZM13.6072 18.7463L13.6076 18.7458L13.6061 18.7455L13.6072 18.7463ZM13.6072 18.7463L10.9955 21.3567L11.0359 21.394L11.1475 21.493L11.2362 21.5682L11.2602 21.5882L11.3617 21.6699L11.3748 21.6803L11.4865 21.7661C11.4881 21.767 11.4895 21.768 11.4908 21.7692L11.9776 22.0983L11.9951 22.1089L12.091 22.1655L12.1497 22.199L12.2054 22.2302L12.3072 22.2852L12.3213 22.2927L12.6091 22.4325L14.0148 19.0179C13.8725 18.9419 13.7358 18.8517 13.6072 18.7463ZM13.3367 18.4868L13.2554 18.3911L13.1879 18.304L13.1157 18.2018L13.0482 18.0964L9.88913 19.9993L10.0519 20.2549L10.065 20.2741L10.0657 20.2754L10.2355 20.5146L10.2392 20.5196L10.243 20.5246L10.3197 20.6246L10.4118 20.7389L10.4316 20.7627L10.507 20.8518L10.5403 20.8896L10.6058 20.9645L10.6429 21.0048L10.6598 21.023L10.7098 21.0755L10.7298 21.096L10.8173 21.1855L13.4232 18.5796L13.3378 18.4884L13.3367 18.4868ZM16.7037 18.812L16.7908 18.7445L16.8011 18.7548L19.4035 21.357C19.232 21.5153 19.0539 21.6622 18.8702 21.7978L18.6102 21.9768L16.7102 18.8228L16.7037 18.812ZM21.3862 16.3959L21.3922 16.4953L21.3942 16.5499H17.6997C17.6802 16.3594 17.6393 16.1717 17.578 15.9903L20.2982 13.2698C20.4257 13.4536 20.5434 13.6445 20.6509 13.842L20.6523 13.8444L20.6534 13.8464L20.7184 13.9714L20.7265 13.987L20.7825 14.1002L20.797 14.1305L20.8436 14.2301L20.8649 14.2773L20.9016 14.3611L20.9291 14.4268L20.9564 14.4935L20.9895 14.5783L21.0083 14.627L21.0457 14.7299L21.057 14.7621L21.097 14.8814L21.1026 14.8989L21.1436 15.0317L21.1454 15.0372C21.2297 15.3227 21.2934 15.6139 21.3358 15.9086L21.3361 15.9099L21.3365 15.913L21.3552 16.0535L21.3558 16.0585L21.3571 16.069L21.3708 16.1993L21.3733 16.2296L21.3829 16.3463L21.3862 16.3959ZM17.7142 16.8L17.7082 16.925L17.7013 17.0499C17.6538 17.5299 17.4685 17.9998 17.1456 18.3923C17.1285 18.4142 17.1087 18.4351 17.0888 18.4561L17.0888 18.4561C17.0797 18.4657 17.0705 18.4754 17.0617 18.4851C17.0515 18.4962 17.0417 18.5075 17.0319 18.5187L17.0319 18.5188C17.0144 18.5388 16.997 18.5588 16.9779 18.5779L19.5838 21.1838C19.6036 21.164 19.6225 21.1438 19.6415 21.1236L19.6701 21.0934L19.7563 21.003C19.9491 20.7943 20.1254 20.5756 20.2842 20.3486L20.3027 20.3219L20.36 20.2378L20.4093 20.1621L20.4343 20.1253C21.032 19.1867 21.3517 18.123 21.3948 17.0498L21.3982 16.9248L21.4003 16.7999L17.7142 16.8Z"/>
</svg>
