<svg viewBox="0 0 32 32" xmlns="http://www.w3.org/2000/svg">
    <path d="M22.4386 14.602H17.959C17.8852 14.6025 17.812 14.5883 17.7437 14.5603C17.6754 14.5322 17.6134 14.4909 17.5611 14.4387C17.5089 14.3865 17.4676 14.3244 17.4396 14.2561C17.4115 14.1878 17.3973 14.1146 17.3978 14.0408V9.56127C17.3978 9.48773 17.3833 9.41491 17.355 9.34701C17.3268 9.27911 17.2854 9.21747 17.2332 9.16563C17.181 9.1138 17.1191 9.07279 17.0511 9.04496C16.983 9.01714 16.9101 9.00306 16.8365 9.00352H15.1598C15.0862 9.00306 15.0133 9.01714 14.9453 9.04496C14.8772 9.07279 14.8153 9.1138 14.7631 9.16563C14.711 9.21747 14.6696 9.27911 14.6413 9.34701C14.6131 9.41491 14.5985 9.48773 14.5985 9.56127V14.0408C14.599 14.1146 14.5848 14.1878 14.5568 14.2561C14.5287 14.3244 14.4874 14.3865 14.4352 14.4387C14.383 14.4909 14.3209 14.5322 14.2526 14.5603C14.1843 14.5883 14.1111 14.6025 14.0373 14.602H12.3605C12.2867 14.6025 12.2135 14.5883 12.1452 14.5603C12.0769 14.5322 12.0148 14.4909 11.9626 14.4387C11.9104 14.3865 11.8691 14.3244 11.841 14.2561C11.813 14.1878 11.7988 14.1146 11.7993 14.0408V9.56127C11.7997 9.48743 11.7855 9.41424 11.7575 9.34593C11.7295 9.27763 11.6881 9.21557 11.6359 9.16336C11.5837 9.11115 11.5217 9.06983 11.4533 9.04179C11.385 9.01374 11.3119 8.99955 11.238 9.00001H9.55776C9.48422 9.00001 9.4114 9.01455 9.3435 9.0428C9.27561 9.07105 9.21396 9.11245 9.16213 9.16461C9.11029 9.21677 9.06928 9.27867 9.04146 9.34675C9.01363 9.41482 8.99955 9.48773 9.00001 9.56127V22.4421C8.99955 22.5159 9.01374 22.5891 9.04179 22.6574C9.06983 22.7257 9.11115 22.7878 9.16336 22.84C9.21557 22.8922 9.27763 22.9335 9.34593 22.9616C9.41424 22.9896 9.48743 23.0038 9.56127 23.0033H22.4386C22.5124 23.0038 22.5856 22.9896 22.6539 22.9616C22.7222 22.9335 22.7843 22.8922 22.8365 22.84C22.8887 22.7878 22.93 22.7257 22.958 22.6574C22.9861 22.5891 23.0003 22.5159 22.9998 22.4421V15.1738C23.0017 15.0991 22.9886 15.0248 22.9611 14.9552C22.9337 14.8857 22.8926 14.8224 22.8403 14.7691C22.7879 14.7157 22.7254 14.6735 22.6564 14.6448C22.5874 14.6161 22.5133 14.6015 22.4386 14.602ZM20.1865 19.3587C20.187 19.4691 20.1656 19.5785 20.1237 19.6806C20.0818 19.7827 20.0201 19.8755 19.9422 19.9538C19.8643 20.032 19.7717 20.0941 19.6698 20.1364C19.5679 20.1788 19.4585 20.2006 19.3482 20.2006H18.2256C18.1153 20.2006 18.0059 20.1788 17.904 20.1364C17.8021 20.0941 17.7095 20.032 17.6316 19.9538C17.5537 19.8755 17.492 19.7827 17.4501 19.6806C17.4082 19.5785 17.3868 19.4691 17.3873 19.3587V18.2397C17.3868 18.1293 17.4082 18.0199 17.4501 17.9178C17.492 17.8156 17.5537 17.7228 17.6316 17.6446C17.7095 17.5664 17.8021 17.5043 17.904 17.4619C18.0059 17.4196 18.1153 17.3978 18.2256 17.3978H19.3482C19.4585 17.3978 19.5679 17.4196 19.6698 17.4619C19.7717 17.5043 19.8643 17.5664 19.9422 17.6446C20.0201 17.7228 20.0818 17.8156 20.1237 17.9178C20.1656 18.0199 20.187 18.1293 20.1865 18.2397V19.3587Z"/>
</svg>
