<svg viewBox="0 0 32 32" xmlns="http://www.w3.org/2000/svg">
    <mask id="mask_flame" style="mask-type:alpha" maskUnits="userSpaceOnUse" x="8" y="16" width="7" height="8">
        <path d="M8.14159 23.6979L9.29913 16.8511L14.9884 22.5404L8.14159 23.6979Z"/>
    </mask>
    <g mask="url(#mask_flame)">
        <path d="M12.3727 19.9082L11.9259 19.4613C11.864 19.3994 11.7636 19.3994 11.7017 19.4613L6.87817 24.2848C6.81626 24.3467 6.81626 24.4471 6.87817 24.509L7.32503 24.9559C7.38694 25.0178 7.48732 25.0178 7.54924 24.9559L12.3727 20.1324C12.4347 20.0705 12.4347 19.9701 12.3727 19.9082Z"
        />
        <path d="M11.088 19.449L10.9983 19.3593C10.9364 19.2974 10.836 19.2974 10.7741 19.3593L6.49161 23.6417C6.42969 23.7036 6.42969 23.804 6.49161 23.8659L6.58129 23.9556C6.64321 24.0175 6.74359 24.0175 6.8055 23.9556L11.088 19.6732C11.1499 19.6113 11.1499 19.5109 11.088 19.449Z"
        />
        <path d="M12.484 20.8395L12.3943 20.7498C12.3324 20.6879 12.232 20.6879 12.1701 20.7498L7.88763 25.0323C7.82572 25.0942 7.82572 25.1946 7.88763 25.2565L7.97732 25.3462C8.03923 25.4081 8.13962 25.4081 8.20153 25.3462L12.484 21.0637C12.5459 21.0018 12.5459 20.9014 12.484 20.8395Z"
        />
    </g>
    <path fill-rule="evenodd" clip-rule="evenodd"
          d="M11.6492 13.9321C11.6215 13.9401 11.5969 13.9563 11.5788 13.9786L9.94549 15.9794C9.92468 16.005 9.91344 16.037 9.91372 16.0699C9.91384 16.0839 9.91607 16.0979 9.92033 16.1112C9.92737 16.1335 9.93984 16.1537 9.95664 16.1701C9.97343 16.1864 9.99402 16.1982 10.0165 16.2046L12.2409 16.8313L12.5173 16.5077C12.6185 16.3892 12.7282 16.2784 12.8457 16.176L13.1547 15.9069L12.9372 16.2542C12.8545 16.3862 12.7622 16.512 12.661 16.6305L12.3645 16.9777C12.3685 17.4292 12.4864 17.8286 12.7186 18.1606L11.9247 18.9709C11.8406 19.0635 11.9036 19.1266 11.9943 19.2162L12.6282 19.8375C12.7157 19.9284 12.775 19.9847 12.8627 19.8938L13.7232 19.0171C13.9191 19.0871 14.3883 19.2078 15.0953 19.0975L15.5247 18.768C15.6466 18.6745 15.7751 18.59 15.9092 18.5151L16.2779 18.3092L15.9836 18.6121C15.8765 18.7222 15.7616 18.8245 15.6398 18.918L15.2853 19.19L16.1004 21.3651C16.1086 21.3871 16.1222 21.4066 16.1398 21.422C16.1575 21.4374 16.1788 21.4481 16.2016 21.4532C16.2245 21.4583 16.2483 21.4577 16.2708 21.4513C16.2934 21.445 16.314 21.4331 16.3308 21.4167L18.1852 19.6193C18.2068 19.5983 18.2211 19.5713 18.2264 19.5414L18.6251 17.1915C19.1313 16.7456 19.6429 16.2273 20.1467 15.6508C23.0471 12.331 23.4618 9.75216 23.451 8.51054C23.4475 8.10879 23.3976 7.88472 23.394 7.86812L23.3938 7.86745C23.3874 7.84021 23.3731 7.81549 23.3527 7.7964C23.3322 7.77731 23.3065 7.76471 23.2789 7.76021C23.133 7.7364 19.6558 7.23096 15.1762 11.7927L15.1756 11.7934C15.1534 11.8168 14.5794 12.4227 13.9643 13.2659L11.6492 13.9321ZM17.2201 12.1217C17.9484 11.3806 18.9932 11.2266 19.5541 11.7777C20.1149 12.3289 19.9792 13.3762 19.2509 14.1173C18.5226 14.8584 17.4778 15.0124 16.9169 14.4613C16.3561 13.9102 16.4919 12.8628 17.2201 12.1217Z"
    />
</svg>
