<svg viewBox="0 0 32 32" xmlns="http://www.w3.org/2000/svg">
    <path d="M16.0002 11C13.8666 11 12.5335 12.0603 11.9999 14.181C12.8 13.1207 13.7334 12.7231 14.8 12.988C15.4085 13.1392 15.8437 13.5781 16.325 14.0641C17.1094 14.8554 18.0174 15.7712 20.0001 15.7712C22.1333 15.7712 23.4667 14.7109 24 12.5905C23.2002 13.6508 22.2668 14.0484 21.2002 13.7831C20.5914 13.632 20.1562 13.1931 19.675 12.7074C18.8905 11.9155 17.9829 11 16.0002 11ZM11.9999 15.7712C9.86671 15.7712 8.5333 16.8315 8 18.9522C8.80011 17.8919 9.73347 17.4943 10.7998 17.7592C11.4086 17.9104 11.8438 18.3493 12.325 18.8352C13.1095 19.6266 14.0171 20.5424 16.0002 20.5424C18.1334 20.5424 19.4668 19.4824 20.0001 17.3617C19.2 18.422 18.2666 18.8196 17.2 18.5546C16.5915 18.4032 16.1563 17.9643 15.675 17.4786C14.8906 16.6873 13.9826 15.7712 11.9999 15.7712Z"/>
</svg>
