<svg viewBox="0 0 32 32" xmlns="http://www.w3.org/2000/svg">
    <path d="M20.5937 11.8806C20.5937 12.9192 19.7517 13.7611 18.7131 13.7611C17.6745 13.7611 16.8326 12.9192 16.8326 11.8806C16.8326 10.842 17.6745 10 18.7131 10C19.7517 10 20.5937 10.842 20.5937 11.8806ZM12.7611 16.003C12.7611 17.0416 11.9192 17.8835 10.8806 17.8835C9.84196 17.8835 9 17.0416 9 16.003C9 14.9644 9.84196 14.1224 10.8806 14.1224C11.9192 14.1224 12.7611 14.9644 12.7611 16.003ZM10.3433 18.62C10.8058 19.7871 11.613 20.7856 12.6573 21.4823C13.7017 22.1791 14.9335 22.5411 16.1888 22.5201C15.822 22.0587 15.6191 21.4883 15.6121 20.8989C15.4438 20.8758 15.2824 20.848 15.128 20.8156C14.4623 20.6744 13.8367 20.3855 13.2976 19.9703C12.7585 19.555 12.3195 19.0239 12.0131 18.4162C11.4931 18.6629 10.9073 18.7344 10.3433 18.62ZM20.1699 20.8526C20.1699 21.8912 19.328 22.7332 18.2893 22.7332C17.2507 22.7332 16.4088 21.8912 16.4088 20.8526C16.4088 19.814 17.2507 18.972 18.2893 18.972C19.328 18.972 20.1699 19.814 20.1699 20.8526ZM19.9684 18.759C20.4276 19.1268 20.7531 19.6354 20.8948 20.2065C21.7238 19.1797 22.2018 17.9141 22.2585 16.5956C22.3152 15.2771 21.9476 13.9752 21.2098 12.8811C20.9955 13.4154 20.6135 13.8657 20.1213 14.1641C20.5041 14.8752 20.6917 15.675 20.6648 16.4822C20.638 17.2893 20.3977 18.0749 19.9684 18.759ZM11.441 13.3836C11.2583 13.3448 11.072 13.3254 10.8852 13.3257C10.818 13.3257 10.7532 13.328 10.686 13.3327C11.2705 12.2972 12.1392 11.4506 13.1893 10.8929C14.2395 10.3351 15.4274 10.0896 16.6126 10.1853C16.3461 10.5154 16.1606 10.9032 16.0707 11.3178C16.0421 11.4629 16.0251 11.61 16.0197 11.7578C15.2885 11.7676 14.5703 11.9528 13.9255 12.2978C13.2807 12.6427 12.7281 13.1374 12.3142 13.7403C12.0462 13.5714 11.7507 13.4507 11.441 13.3836Z"/>
</svg>
